Capstone Quiz I
…
In terms of price, which neighborhood has the highest standard deviation?

StoneBr

Timber

Veenker

NridgHt

ames_train %>%
  group_by(Neighborhood) %>%
  summarise(sd=sd(price))

## # A tibble: 27 x 2
##    Neighborhood     sd
##    <fct>         <dbl>
##  1 Blmngtn      26455.
##  2 Blueste      10381.
##  3 BrDale       13338.
##  4 BrkSide      37310.
##  5 ClearCr      48069.
##  6 CollgCr      52786.
##  7 Crawfor      71268.
##  8 Edwards      54852.
##  9 Gilbert      41190.
## 10 Greens       29063.
## # ... with 17 more rows
…
How many neighborhoods consist of only single-family homes? (e.g.Bldg.Type = 1Fam)

0

1

2

3

ames_train %>% 
  group_by(Neighborhood) %>% 
  summarise(mean(Bldg.Type == "1Fam"))

## # A tibble: 27 x 2
##    Neighborhood `mean(Bldg.Type == "1Fam")`
##    <fct>                              <dbl>
##  1 Blmngtn                            0.182
##  2 Blueste                            0    
##  3 BrDale                             0    
##  4 BrkSide                            0.976
##  5 ClearCr                            1    
##  6 CollgCr                            0.965
##  7 Crawfor                            0.862
##  8 Edwards                            0.8  
##  9 Gilbert                            0.980
## 10 Greens                             0    
## # ... with 17 more rows
…
