02.-EDA---Basic-Model-Selection.knit
…
q2 <- ames_train %>%
  group_by(Neighborhood) %>%
  summarise(mean=mean(price),
            sd=sd(price),
            min = fivenum(price)[1],
            Q1 = fivenum(price)[2],
            median = fivenum(price)[3],
            Q3 = fivenum(price)[4],
            max = fivenum(price)[5])

q2

## # A tibble: 27 x 8
##    Neighborhood    mean     sd    min      Q1 median     Q3    max
##    <fct>          <dbl>  <dbl>  <dbl>   <dbl>  <dbl>  <dbl>  <dbl>
##  1 Blmngtn      198635. 26455. 172500 182112. 191000 205000 246990
##  2 Blueste      125800  10381. 116500 120200  123900 130450 137000
##  3 BrDale        98930  13338.  83000  88000   98750 105500 125500
##  4 BrkSide      122473. 37310.  39300  93000  124000 135000 207000
##  5 ClearCr      193154. 48069. 107500 164000  185000 240000 277000
##  6 CollgCr      196951. 52786. 110000 160000  195800 218836 475000
##  7 Crawfor      204197. 71268.  96500 154900  205000 235000 392500
##  8 Edwards      136322. 54852.  61500 111500  127250 148000 415000
##  9 Gilbert      193328. 41190. 133000 171500  183500 199500 377500
## 10 Greens       198562. 29063. 155000 183250  212625 213875 214000
## # ... with 17 more rows
…
